00:00:00,0.000167560321716
00:10:00,0.000251340482574
00:20:00,0.000502680965147
00:30:00,0.000670241286863
00:40:00,0.000670241286863
00:50:00,0.000670241286863
01:00:00,0.000670241286863
01:10:00,0.000670241286863
01:20:00,0.000670241286863
01:30:00,0.000670241286863
01:40:00,0.000670241286863
01:50:00,0.000670241286863
02:00:00,0.000670241286863
02:10:00,0.000670241286863
02:20:00,0.000670241286863
02:30:00,0.000670241286863
02:40:00,0.000670241286863
02:50:00,0.000670241286863
03:00:00,0.000670241286863
03:10:00,0.000670241286863
03:20:00,0.000670241286863
03:30:00,0.000670241286863
03:40:00,0.000670241286863
03:50:00,0.000670241286863
04:00:00,0.000670241286863
04:10:00,0.000670241286863
04:20:00,0.000670241286863
04:30:00,0.000670241286863
04:40:00,0.000670241286863
04:50:00,0.000670241286863
05:00:00,0.000670241286863
05:10:00,0.000670241286863
05:20:00,0.000754021447721
05:30:00,0.000837801608579
05:40:00,0.00108914209115
05:50:00,0.00117292225201
06:00:00,0.00142426273458
06:10:00,0.00167560321716
06:20:00,0.00184316353887
06:30:00,0.00217828418231
06:40:00,0.0025971849866
06:50:00,0.00385388739946
07:00:00,0.00494302949062
07:10:00,0.00628351206434
07:20:00,0.00862935656836
07:30:00,0.0119805630027
07:40:00,0.0154993297587
07:50:00,0.0191856568365
08:00:00,0.0218666219839
08:10:00,0.0244638069705
08:20:00,0.028904155496
08:30:00,0.03418230563
08:40:00,0.0384550938338
08:50:00,0.0441521447721
09:00:00,0.0486762734584
09:10:00,0.0522788203753
09:20:00,0.0567191689008
09:30:00,0.0619973190349
09:40:00,0.0663538873995
09:50:00,0.0705428954424
10:00:00,0.074313002681
10:10:00,0.0768264075067
10:20:00,0.0786695710456
10:30:00,0.0816018766756
10:40:00,0.0838639410188
10:50:00,0.0857071045576
11:00:00,0.0868800268097
11:10:00,0.0881367292225
11:20:00,0.0893096514745
11:30:00,0.0907339142091
11:40:00,0.0933310991957
11:50:00,0.0965147453083
12:00:00,0.101206434316
12:10:00,0.107238605898
12:20:00,0.113857238606
12:30:00,0.122570375335
12:40:00,0.134969839142
12:50:00,0.151977211796
13:00:00,0.178367962466
13:10:00,0.203753351206
13:20:00,0.229222520107
13:30:00,0.25779155496
13:40:00,0.28904155496
13:50:00,0.323307640751
14:00:00,0.367376005362
14:10:00,0.408428284182
14:20:00,0.444537533512
14:30:00,0.478887399464
14:40:00,0.508545576408
14:50:00,0.533847184987
15:00:00,0.551859919571
15:10:00,0.565683646113
15:20:00,0.577831769437
15:30:00,0.585874664879
15:40:00,0.592912198391
15:50:00,0.598190348525
16:00:00,0.601122654155
16:10:00,0.603719839142
16:20:00,0.60648458445
16:30:00,0.608914209115
16:40:00,0.610589812332
16:50:00,0.61226541555
17:00:00,0.613605898123
17:10:00,0.614359919571
17:20:00,0.615113941019
17:30:00,0.616119302949
17:40:00,0.616873324397
17:50:00,0.617376005362
18:00:00,0.618297587131
18:10:00,0.619219168901
18:20:00,0.620224530831
18:30:00,0.621481233244
18:40:00,0.623743297587
18:50:00,0.626591823056
19:00:00,0.631451072386
19:10:00,0.635975201072
19:20:00,0.64158847185
19:30:00,0.649798927614
19:40:00,0.661947050938
19:50:00,0.675603217158
20:00:00,0.695710455764
20:10:00,0.715733914209
20:20:00,0.736511394102
20:30:00,0.764158847185
20:40:00,0.798006032172
20:50:00,0.832355898123
21:00:00,0.867794906166
21:10:00,0.897704423592
21:20:00,0.922670911528
21:30:00,0.941270107239
21:40:00,0.956936997319
21:50:00,0.968917560322
22:00:00,0.975871313673
22:10:00,0.98140080429
22:20:00,0.985506032172
22:30:00,0.989359919571
22:40:00,0.992124664879
22:50:00,0.994051608579
23:00:00,0.995475871314
23:10:00,0.996900134048
23:20:00,0.9980730563
23:30:00,0.998910857909
23:40:00,0.999664879357
23:50:00,1.0
