00:00:00,0.000272590977239
00:10:00,0.000272590977239
00:20:00,0.000272590977239
00:30:00,0.000272590977239
00:40:00,0.000272590977239
00:50:00,0.000272590977239
01:00:00,0.000272590977239
01:10:00,0.000272590977239
01:20:00,0.000272590977239
01:30:00,0.000272590977239
01:40:00,0.000272590977239
01:50:00,0.000272590977239
02:00:00,0.000272590977239
02:10:00,0.000272590977239
02:20:00,0.000272590977239
02:30:00,0.000272590977239
02:40:00,0.000272590977239
02:50:00,0.000272590977239
03:00:00,0.000272590977239
03:10:00,0.000272590977239
03:20:00,0.000272590977239
03:30:00,0.000272590977239
03:40:00,0.000272590977239
03:50:00,0.000272590977239
04:00:00,0.000272590977239
04:10:00,0.000272590977239
04:20:00,0.000272590977239
04:30:00,0.000272590977239
04:40:00,0.000272590977239
04:50:00,0.000272590977239
05:00:00,0.000272590977239
05:10:00,0.000272590977239
05:20:00,0.000408886465858
05:30:00,0.000681477443097
05:40:00,0.000954068420335
05:50:00,0.00109036390895
06:00:00,0.00109036390895
06:10:00,0.00136295488619
06:20:00,0.00177184135205
06:30:00,0.00218072781791
06:40:00,0.00313479623824
06:50:00,0.00408886465858
07:00:00,0.00586070601063
07:10:00,0.00804143382854
07:20:00,0.0103584571351
07:30:00,0.0145836172823
07:40:00,0.0201717323157
07:50:00,0.0254872563718
08:00:00,0.0310753714052
08:10:00,0.0387079187679
08:20:00,0.0456589886875
08:30:00,0.0522011721412
08:40:00,0.0607877879242
08:50:00,0.0684203352869
09:00:00,0.0727817909227
09:10:00,0.0756439961837
09:20:00,0.0785062014447
09:30:00,0.081640997683
09:40:00,0.0839580209895
09:50:00,0.0865476352733
10:00:00,0.0879105901595
10:10:00,0.0888646585798
10:20:00,0.0899550224888
10:30:00,0.0907727954205
10:40:00,0.0914542728636
10:50:00,0.0922720457953
11:00:00,0.0929535232384
11:10:00,0.0936350006815
11:20:00,0.0945890691018
11:30:00,0.0964972059425
11:40:00,0.0993594112035
11:50:00,0.102903093908
12:00:00,0.109036390895
12:10:00,0.114079323974
12:20:00,0.118849666076
12:30:00,0.129480714188
12:40:00,0.142565081096
12:50:00,0.159056835219
13:00:00,0.188224069783
13:10:00,0.217527599836
13:20:00,0.244105220117
13:30:00,0.272318386261
13:40:00,0.302712280224
13:50:00,0.334469129072
14:00:00,0.373449638817
14:10:00,0.409567943301
14:20:00,0.44418699741
14:30:00,0.478397165054
14:40:00,0.509063649993
14:50:00,0.536731634183
15:00:00,0.555540411612
15:10:00,0.571759574758
15:20:00,0.584843941666
15:30:00,0.594384625869
15:40:00,0.602562355186
15:50:00,0.609240834128
16:00:00,0.612375630367
16:10:00,0.614420062696
16:20:00,0.616191904048
16:30:00,0.617282267957
16:40:00,0.618236336377
16:50:00,0.618645222843
17:00:00,0.618781518332
17:10:00,0.618781518332
17:20:00,0.61891781382
17:30:00,0.619054109309
17:40:00,0.619190404798
17:50:00,0.619190404798
18:00:00,0.620008177729
18:10:00,0.62096224615
18:20:00,0.622597792013
18:30:00,0.624642224342
18:40:00,0.62682295216
18:50:00,0.629685157421
19:00:00,0.635954749898
19:10:00,0.643451001772
19:20:00,0.652719094998
19:30:00,0.663077552133
19:40:00,0.67616191904
19:50:00,0.691835900232
20:00:00,0.716369088183
20:10:00,0.741038571623
20:20:00,0.765844350552
20:30:00,0.791467902412
20:40:00,0.821044023443
20:50:00,0.848439416655
21:00:00,0.88155922039
21:10:00,0.908954613602
21:20:00,0.93089818727
21:30:00,0.946572168461
21:40:00,0.959792830857
21:50:00,0.971650538367
22:00:00,0.977783835355
22:10:00,0.982417881968
22:20:00,0.987324519558
22:30:00,0.991549679706
22:40:00,0.994411884967
22:50:00,0.996728908273
23:00:00,0.997546681205
23:10:00,0.998228158648
23:20:00,0.998637045114
23:30:00,0.999182227068
23:40:00,0.999591113534
23:50:00,1.0
