00:00:00,0.000750750750751
00:10:00,0.000750750750751
00:20:00,0.000750750750751
00:30:00,0.000750750750751
00:40:00,0.000750750750751
00:50:00,0.0015015015015
01:00:00,0.0015015015015
01:10:00,0.00225225225225
01:20:00,0.00225225225225
01:30:00,0.00225225225225
01:40:00,0.00225225225225
01:50:00,0.00225225225225
02:00:00,0.00225225225225
02:10:00,0.00225225225225
02:20:00,0.00225225225225
02:30:00,0.00225225225225
02:40:00,0.00225225225225
02:50:00,0.00225225225225
03:00:00,0.00225225225225
03:10:00,0.00225225225225
03:20:00,0.00225225225225
03:30:00,0.00225225225225
03:40:00,0.00225225225225
03:50:00,0.00225225225225
04:00:00,0.00225225225225
04:10:00,0.003003003003
04:20:00,0.003003003003
04:30:00,0.003003003003
04:40:00,0.003003003003
04:50:00,0.003003003003
05:00:00,0.003003003003
05:10:00,0.003003003003
05:20:00,0.003003003003
05:30:00,0.003003003003
05:40:00,0.003003003003
05:50:00,0.00375375375375
06:00:00,0.0045045045045
06:10:00,0.00675675675676
06:20:00,0.00900900900901
06:30:00,0.0165165165165
06:40:00,0.0217717717718
06:50:00,0.0255255255255
07:00:00,0.03003003003
07:10:00,0.0367867867868
07:20:00,0.0412912912913
07:30:00,0.0510510510511
07:40:00,0.0623123123123
07:50:00,0.0698198198198
08:00:00,0.0795795795796
08:10:00,0.0885885885886
08:20:00,0.0968468468468
08:30:00,0.105855855856
08:40:00,0.113363363363
08:50:00,0.121621621622
09:00:00,0.130630630631
09:10:00,0.142642642643
09:20:00,0.153903903904
09:30:00,0.165915915916
09:40:00,0.171171171171
09:50:00,0.177177177177
10:00:00,0.186936936937
10:10:00,0.197447447447
10:20:00,0.202702702703
10:30:00,0.211711711712
10:40:00,0.217717717718
10:50:00,0.225975975976
11:00:00,0.233483483483
11:10:00,0.24024024024
11:20:00,0.247747747748
11:30:00,0.256756756757
11:40:00,0.263513513514
11:50:00,0.267267267267
12:00:00,0.274024024024
12:10:00,0.28003003003
12:20:00,0.287537537538
12:30:00,0.292042042042
12:40:00,0.295045045045
12:50:00,0.296546546547
13:00:00,0.3003003003
13:10:00,0.304054054054
13:20:00,0.307807807808
13:30:00,0.311561561562
13:40:00,0.316066066066
13:50:00,0.321321321321
14:00:00,0.325825825826
14:10:00,0.32957957958
14:20:00,0.337087087087
14:30:00,0.348348348348
14:40:00,0.358108108108
14:50:00,0.369369369369
15:00:00,0.386636636637
15:10:00,0.401651651652
15:20:00,0.415165165165
15:30:00,0.424924924925
15:40:00,0.436186186186
15:50:00,0.448948948949
16:00:00,0.467717717718
16:10:00,0.484234234234
16:20:00,0.498498498498
16:30:00,0.512012012012
16:40:00,0.527777777778
16:50:00,0.540540540541
17:00:00,0.557807807808
17:10:00,0.575825825826
17:20:00,0.598348348348
17:30:00,0.616366366366
17:40:00,0.633633633634
17:50:00,0.647897897898
18:00:00,0.667417417417
18:10:00,0.683933933934
18:20:00,0.704204204204
18:30:00,0.720720720721
18:40:00,0.739489489489
18:50:00,0.753753753754
19:00:00,0.766516516517
19:10:00,0.78003003003
19:20:00,0.794294294294
19:30:00,0.807057057057
19:40:00,0.813813813814
19:50:00,0.822072072072
20:00:00,0.834084084084
20:10:00,0.840840840841
20:20:00,0.848348348348
20:30:00,0.853603603604
20:40:00,0.86036036036
20:50:00,0.865615615616
21:00:00,0.880630630631
21:10:00,0.894894894895
21:20:00,0.905405405405
21:30:00,0.913663663664
21:40:00,0.923423423423
21:50:00,0.93018018018
22:00:00,0.948948948949
22:10:00,0.964714714715
22:20:00,0.972972972973
22:30:00,0.98048048048
22:40:00,0.984234234234
22:50:00,0.989489489489
23:00:00,0.993993993994
23:10:00,0.995495495495
23:20:00,0.997747747748
23:30:00,1.0
23:40:00,1.0
23:50:00,1.0
